<?xml version="1.0" standalone="no"?>
<!DOCTYPE svg PUBLIC "-//W3C//DTD SVG 20010904//EN"
 "http://www.w3.org/TR/2001/REC-SVG-20010904/DTD/svg10.dtd">
<svg version="1.0" xmlns="http://www.w3.org/2000/svg"
 width="2312.000000pt" height="946.000000pt" viewBox="0 0 2312.000000 946.000000"
 preserveAspectRatio="xMidYMid meet">

<g transform="translate(0.000000,946.000000) scale(0.100000,-0.100000)"
fill="#000000" stroke="none">
<path d="M3500 8906 c0 -3 5 -17 11 -33 6 -16 11 -97 10 -188 0 -225 1 -218
-19 -168 -9 23 -20 44 -23 48 -7 6 -35 -50 -56 -110 -6 -16 -39 -97 -73 -180
-34 -82 -149 -359 -256 -615 l-193 -464 140 -214 140 -214 -53 -56 c-29 -32
-292 -300 -585 -596 l-533 -539 0 162 0 161 70 0 70 0 0 74 c0 85 -1 86 -86
86 l-54 0 0 154 0 153 45 18 c28 10 58 32 77 56 18 22 50 50 71 62 42 23 67
61 67 100 0 13 11 40 24 60 14 20 33 56 44 80 16 35 27 46 50 52 29 6 56 29
107 91 15 20 38 34 60 38 38 7 69 43 81 92 3 16 22 45 40 64 109 113 114 120
92 131 -20 11 -20 11 1 33 11 12 27 40 34 61 10 28 27 49 56 69 47 31 61 58
61 115 0 27 7 44 25 61 14 13 25 31 25 40 0 10 11 34 25 55 15 20 25 38 23 39
-23 16 -119 46 -145 46 -31 0 -36 -4 -54 -46 l-21 -45 -18 22 c-21 23 -14 50
19 77 14 11 10 12 -22 7 -21 -3 -45 -9 -53 -12 -25 -9 -15 16 21 54 38 40 39
44 35 115 -1 26 3 62 8 80 6 18 13 56 16 84 l6 51 -39 11 c-21 7 -56 12 -79
12 -39 0 -40 -1 -44 -37 -3 -21 0 -41 5 -44 5 -4 1 -9 -9 -11 -10 -2 -27 4
-37 13 -14 13 -16 21 -8 41 5 14 16 28 23 31 8 3 9 6 1 6 -14 1 -114 -45 -109
-50 9 -11 16 -80 8 -75 -6 3 -8 -2 -5 -13 4 -16 1 -19 -15 -14 -28 7 -32 22
-17 66 l13 38 -32 -20 c-41 -25 -59 -63 -62 -130 -2 -48 -5 -55 -25 -58 -13
-2 -20 -1 -16 3 3 4 2 15 -3 24 -7 12 -5 32 5 60 l14 41 -40 -23 c-46 -26 -59
-50 -59 -111 0 -31 -3 -38 -10 -27 -5 8 -10 26 -10 39 0 17 -4 22 -15 17 -10
-4 -19 3 -25 19 -10 27 -46 40 -82 30 -69 -20 -107 -38 -101 -49 4 -6 8 -16 9
-22 1 -6 5 -26 9 -43 8 -36 -11 -42 -44 -15 -19 17 -18 46 2 72 24 30 -13 8
-53 -33 l-44 -44 26 -66 c25 -62 25 -65 7 -65 -30 0 -54 31 -54 72 0 45 -8 40
-42 -25 l-27 -52 -9 35 c-5 19 -12 42 -16 50 -11 20 -64 24 -128 10 -50 -11
-51 -12 -43 -39 12 -44 7 -76 -12 -76 -10 0 -18 5 -19 10 0 6 -7 14 -14 18
-11 6 -12 13 -3 32 6 14 16 25 21 25 6 0 8 3 5 6 -4 3 -15 1 -26 -5 -30 -16
-105 -81 -93 -81 5 0 15 -19 21 -42 6 -24 13 -50 16 -58 7 -25 -32 -22 -44 3
-18 34 -22 75 -9 81 7 2 5 5 -5 5 -48 3 -78 -146 -41 -199 17 -23 18 -84 18
-922 1 -494 -2 -898 -6 -898 -4 0 -21 8 -38 18 -35 19 -33 8 -31 288 1 98 -2
123 -15 134 -8 7 -15 8 -15 3 0 -5 -9 -9 -21 -10 -17 -2 -19 1 -8 13 7 9 23
14 36 11 l23 -4 0 144 0 144 -22 -15 c-12 -9 -30 -16 -40 -16 -16 0 -16 3 -6
20 7 11 25 25 40 31 l28 11 -2 542 c-1 297 -4 552 -8 566 l-6 25 -27 -27 c-14
-14 -29 -39 -33 -54 -8 -33 8 -121 31 -166 19 -38 19 -54 2 -39 -8 6 -16 9
-19 6 -2 -3 -11 6 -18 20 -7 14 -17 25 -21 25 -4 0 -6 20 -6 44 2 40 0 43 -16
34 -11 -5 -31 -29 -45 -53 -21 -32 -41 -48 -84 -68 -32 -14 -61 -33 -65 -43
-3 -9 1 -37 11 -62 18 -51 10 -70 -23 -53 -32 17 -43 45 -31 77 10 24 9 26 -6
13 -9 -7 -31 -35 -49 -62 l-33 -49 38 -56 c21 -32 36 -60 33 -64 -7 -12 -43
-9 -43 3 0 5 -4 8 -9 5 -11 -7 -31 38 -31 70 0 41 -18 18 -36 -46 -9 -33 -20
-60 -24 -60 -12 0 -39 34 -53 69 l-14 33 -61 -51 c-75 -62 -81 -79 -48 -127
28 -41 25 -57 -7 -52 -32 4 -45 20 -43 51 3 45 -20 11 -37 -55 -14 -53 -14
-58 2 -63 10 -3 32 -21 51 -40 l33 -34 -24 -9 c-20 -8 -29 -4 -57 24 -20 21
-30 39 -26 47 5 8 2 7 -9 -2 -19 -15 -22 -56 -7 -96 5 -14 32 -48 59 -75 45
-45 48 -51 34 -65 -14 -14 -17 -14 -30 2 -8 10 -11 12 -8 5 16 -31 -35 13 -52
45 -16 30 -19 32 -30 16 -37 -50 5 -138 95 -198 23 -15 42 -29 42 -31 0 -12
-31 -1 -52 18 -75 68 -80 71 -90 54 -8 -14 -13 -13 -44 10 -31 24 -37 25 -65
14 -32 -14 -99 -88 -99 -111 0 -7 17 -30 37 -51 36 -37 36 -38 17 -52 -10 -8
-21 -10 -22 -5 -2 5 -7 7 -12 4 -5 -3 -18 7 -29 21 -17 21 -19 30 -9 48 10 19
10 20 -5 8 -19 -16 -41 -113 -32 -141 3 -11 14 -23 23 -26 9 -3 33 -19 52 -35
33 -29 33 -30 15 -44 -17 -12 -21 -12 -33 3 -10 11 -11 12 -6 1 5 -10 -1 -8
-17 5 -32 27 -48 48 -43 57 3 5 0 8 -7 8 -8 0 -10 -16 -5 -57 8 -69 35 -108
107 -154 28 -19 46 -35 40 -37 -6 -2 -9 -7 -6 -11 2 -4 -15 -7 -40 -7 -24 1
-42 2 -40 4 1 2 -10 17 -26 35 -16 17 -29 38 -29 47 0 13 -1 13 -10 0 -11 -17
-13 -84 -4 -115 6 -22 84 -90 135 -117 18 -9 37 -23 43 -29 8 -9 8 -10 -1 -5
-8 4 -13 1 -13 -8 0 -12 -5 -14 -25 -6 -14 5 -25 7 -25 5 0 -3 -12 2 -28 12
-31 20 -58 54 -54 68 1 6 -5 1 -14 -10 -12 -15 -14 -33 -10 -78 3 -32 11 -67
17 -78 6 -12 8 -23 6 -26 -8 -7 -60 22 -81 46 l-20 22 -33 -72 c-44 -96 -43
-113 8 -139 46 -24 47 -44 1 -48 -22 -2 -34 2 -41 16 -6 11 -7 23 -3 27 4 5 1
5 -5 1 -16 -9 -16 -47 -1 -97 10 -34 17 -40 52 -50 73 -18 74 -19 69 -37 -6
-24 -60 -21 -89 5 -39 35 -48 0 -13 -49 12 -16 20 -30 18 -32 -2 -1 -24 -11
-49 -21 -25 -10 -49 -22 -53 -25 -5 -4 19 -17 52 -30 46 -17 65 -30 80 -56 22
-36 65 -59 146 -76 48 -10 84 -28 56 -28 -7 0 -10 -4 -7 -8 3 -4 -12 -9 -32
-9 -37 -1 -91 20 -104 41 -12 18 -9 -44 3 -67 11 -21 11 -21 -7 -6 -10 8 -38
21 -60 27 -23 7 -47 19 -54 27 -7 8 -16 15 -20 15 -14 0 -52 -127 -48 -161 2
-26 9 -34 43 -47 51 -20 50 -17 31 -44 -9 -12 -16 -17 -16 -10 0 10 -5 10 -21
1 -15 -8 -19 -8 -15 0 4 6 3 11 -2 11 -5 0 -14 10 -20 23 -11 22 -11 22 -11
-4 -1 -14 6 -46 15 -71 15 -46 15 -46 72 -53 72 -9 78 -13 51 -36 -12 -10 -25
-16 -29 -14 -5 3 -11 -1 -13 -7 -4 -10 -6 -10 -6 0 -1 6 -6 12 -13 12 -6 0
-20 7 -30 17 -17 15 -18 15 -18 -10 0 -18 13 -36 42 -61 23 -20 46 -36 52 -37
11 0 36 -4 92 -14 45 -8 36 -41 -13 -47 -19 -2 -36 -1 -38 3 -3 3 -18 9 -35
13 -21 4 -29 10 -24 18 5 10 4 10 -5 2 -17 -16 -4 -57 27 -87 36 -32 83 -47
153 -47 56 0 86 -14 55 -26 -9 -3 -14 -9 -12 -13 3 -4 -18 -8 -45 -9 -32 -1
-49 2 -49 10 0 6 -3 8 -7 5 -3 -4 -15 0 -25 10 -17 15 -18 15 -18 -4 0 -25 48
-98 80 -121 20 -13 43 -17 107 -15 45 1 85 -2 88 -7 3 -6 -1 -7 -10 -4 -10 4
-15 2 -13 -7 2 -9 -14 -13 -64 -13 -52 -1 -64 -4 -56 -13 15 -19 -55 -17 -92
2 l-28 15 -4 -68 c-4 -66 6 -131 20 -133 90 -10 97 -15 66 -44 -15 -14 -28
-25 -30 -25 -2 0 -12 10 -24 22 -17 19 -20 19 -20 4 0 -28 64 -116 78 -107 7
4 34 8 61 10 45 2 49 0 44 -18 -8 -30 -86 -42 -105 -16 -4 6 -8 0 -8 -12 0
-13 13 -31 32 -45 28 -20 45 -23 119 -23 73 0 85 -2 86 -17 1 -9 -6 -23 -15
-30 -13 -11 -14 -11 -7 1 6 11 3 11 -14 -1 -25 -17 -81 -14 -93 5 -5 7 -8 3
-8 -11 0 -29 41 -71 78 -78 18 -4 29 -12 29 -22 0 -23 -16 -32 -61 -32 -27 0
-37 -4 -33 -13 3 -7 13 -41 22 -75 23 -80 41 -97 92 -83 49 14 50 14 57 -4 8
-22 -31 -54 -57 -47 -12 3 -25 10 -29 16 -5 8 -8 7 -8 -1 0 -8 -26 -3 -80 17
-44 17 -116 44 -161 60 l-81 30 4 -112 c6 -147 29 -209 107 -288 31 -32 64
-62 75 -67 18 -10 18 -11 -2 -56 -30 -68 -105 -180 -151 -226 -22 -22 -63 -53
-91 -69 l-51 -29 73 -32 c210 -94 331 -114 713 -115 236 -1 541 10 568 19 7 3
59 7 117 9 58 2 115 7 128 11 17 6 22 3 22 -9 0 -9 -4 -16 -10 -16 -20 0 -9
-20 14 -26 15 -3 39 -28 61 -60 46 -70 66 -78 121 -47 36 20 43 21 48 8 12
-32 -37 -77 -65 -59 -7 4 -10 2 -7 -6 2 -7 31 -23 64 -34 32 -11 62 -25 66
-31 4 -5 8 -80 8 -166 0 -145 2 -158 23 -189 12 -19 36 -42 54 -53 31 -17 85
-18 1436 -19 1563 0 1437 -6 1494 69 l28 36 3 194 c3 183 5 194 24 204 12 6
46 31 77 55 31 23 82 52 114 64 31 12 71 33 89 48 38 32 83 34 328 13 203 -18
669 -19 843 -2 181 17 324 57 416 118 l23 15 -49 28 c-75 43 -162 143 -217
250 -45 87 -47 93 -30 103 11 6 42 33 70 59 63 59 100 137 114 239 11 74 5
159 -11 159 -5 0 -77 -25 -160 -56 -183 -66 -245 -82 -368 -90 l-94 -7 24 34
c13 19 38 50 55 70 18 20 35 47 39 60 4 13 25 43 46 66 22 24 50 67 63 97 13
30 49 81 80 115 31 33 56 65 56 70 0 5 31 41 70 80 38 39 70 78 70 86 0 28
-19 24 -58 -14 -27 -25 -54 -40 -79 -44 -21 -4 -51 -10 -68 -13 -30 -6 -29 -6
10 23 22 17 48 39 58 50 27 31 87 134 87 150 0 8 11 31 25 51 14 20 30 55 36
77 11 42 106 210 146 258 24 29 30 57 14 57 -5 0 -20 -13 -33 -29 -23 -29
-117 -76 -138 -69 -5 1 10 28 36 58 59 71 77 109 98 200 9 41 22 95 28 120 6
25 16 86 23 135 7 50 20 107 29 127 9 21 16 46 16 57 0 11 9 22 20 26 16 5 17
9 8 25 -9 14 -7 28 9 66 20 46 21 74 2 74 -5 0 -16 -18 -25 -40 -9 -22 -25
-45 -36 -51 -19 -10 -19 -7 -12 153 4 90 11 173 15 186 5 13 9 44 9 68 0 25 5
54 10 65 20 36 1 37 -36 3 -19 -19 -39 -34 -44 -34 -4 0 -11 53 -15 118 -4 64
-11 127 -16 139 -5 13 -9 85 -10 162 l-1 139 -66 -69 c-35 -38 -67 -67 -70
-64 -5 5 -18 62 -46 210 -8 39 -21 87 -30 107 -9 21 -16 61 -16 90 -1 29 -5
73 -11 98 -5 25 -10 59 -9 77 1 38 -16 52 -26 21 -3 -12 -27 -48 -53 -80 l-46
-57 -16 62 c-16 62 -71 181 -89 192 -5 3 -18 26 -30 51 -11 25 -40 73 -65 106
-25 33 -48 72 -51 87 -4 14 -21 53 -40 86 -18 33 -37 79 -43 101 -11 41 -36
73 -48 60 -3 -3 -1 -24 6 -46 13 -43 9 -83 -17 -170 l-16 -55 -6 75 c-5 67
-11 85 -55 158 -27 46 -57 88 -67 93 -10 5 -28 29 -39 52 -12 23 -48 70 -80
105 -33 34 -59 68 -59 74 0 7 -20 42 -44 78 -25 36 -48 78 -51 92 -7 28 -40
68 -55 68 -14 0 -12 -22 5 -64 11 -26 13 -42 5 -56 -5 -10 -10 -29 -10 -42 0
-26 -48 -134 -56 -126 -7 8 -48 83 -78 145 -13 29 -36 67 -49 85 -14 18 -28
44 -32 58 -4 14 -20 52 -35 86 -15 33 -31 74 -34 91 -7 32 -32 61 -42 50 -3
-3 -1 -21 6 -41 8 -26 8 -46 0 -78 -22 -86 -18 -81 -48 -58 -41 31 -140 120
-181 163 -20 21 -59 62 -86 92 l-51 54 -2 -87 c-2 -73 -18 -199 -28 -210 -1
-2 -59 39 -127 92 -140 106 -154 114 -250 146 -85 28 -179 90 -207 137 -16 27
-24 33 -33 24 -9 -9 -6 -21 10 -54 30 -59 83 -227 83 -263 0 -17 7 -53 15 -80
8 -27 15 -53 15 -58 0 -9 -211 -1 -284 11 l-38 6 49 -52 c27 -28 65 -77 84
-108 19 -30 49 -75 67 -99 17 -24 32 -46 32 -48 0 -11 -88 -14 -180 -6 -96 8
-136 5 -101 -8 22 -7 106 -101 160 -179 28 -39 79 -93 116 -123 36 -29 64 -55
61 -57 -3 -3 -48 -6 -101 -7 -52 -1 -94 -7 -93 -12 1 -5 28 -31 60 -58 32 -27
76 -73 98 -103 46 -60 99 -103 227 -184 83 -53 147 -78 236 -94 30 -5 45 -15
70 -51 19 -27 34 -62 37 -87 5 -37 8 -42 38 -48 18 -4 44 -17 58 -30 l24 -22
2 524 c3 581 -3 526 61 521 16 -2 17 -56 17 -982 l0 -979 -467 472 c-257 260
-541 547 -631 638 l-163 165 108 165 c60 90 123 187 141 215 l32 51 -80 191
c-44 105 -89 207 -100 227 -11 19 -20 44 -20 54 0 11 -15 32 -32 47 -18 15
-25 25 -15 21 9 -3 17 -3 17 1 0 7 -63 163 -211 522 -57 139 -68 175 -70 231
-1 36 1 71 5 77 4 7 4 12 -1 12 -4 0 -7 61 -6 137 1 103 -2 143 -13 165 -13
25 -24 36 -24 24z m78 -796 c179 -429 374 -895 377 -900 2 -3 -63 -106 -145
-230 l-147 -225 251 -255 c139 -140 469 -475 735 -744 370 -376 486 -488 497
-480 148 99 266 181 335 231 48 35 92 63 99 63 7 0 115 -42 239 -94 124 -52
278 -115 341 -141 63 -26 129 -53 145 -60 17 -8 75 -32 130 -55 219 -91 270
-113 278 -119 4 -4 -48 -30 -115 -58 -68 -29 -159 -67 -203 -86 -44 -19 -243
-102 -443 -186 l-363 -152 -57 36 c-31 20 -93 61 -137 91 -44 31 -121 85 -172
120 l-91 63 -727 -737 c-400 -405 -729 -742 -732 -748 -2 -7 59 -110 136 -229
78 -119 141 -222 141 -229 0 -6 -5 -23 -11 -37 -6 -13 -50 -118 -98 -234 l-86
-210 -52 -3 -51 -3 95 228 c53 125 96 237 97 248 0 11 -66 123 -148 248 l-148
228 53 57 c76 81 706 719 1149 1164 l375 377 200 -140 c110 -76 214 -150 230
-164 17 -13 32 -25 35 -25 3 0 118 48 255 106 233 99 338 142 558 231 48 20
85 38 83 41 -8 7 -879 372 -889 372 -5 0 -109 -69 -230 -153 -122 -84 -228
-157 -235 -161 -8 -5 -200 182 -565 551 -766 773 -1011 1023 -1015 1034 -2 5
63 111 144 236 81 124 147 231 148 237 1 6 -82 211 -183 455 -139 334 -187
439 -193 425 -127 -299 -360 -863 -360 -874 -1 -8 47 -89 107 -180 59 -91 127
-194 150 -230 l43 -65 -72 -75 c-174 -184 -1501 -1520 -1508 -1520 -4 0 -112
72 -238 161 l-230 160 -413 -171 c-226 -94 -429 -178 -450 -187 l-38 -16 58
-24 c101 -42 481 -202 662 -279 l174 -75 71 50 c39 28 146 102 239 166 l167
116 413 -418 c227 -230 447 -454 489 -498 l76 -79 89 33 c202 76 360 179 511
335 154 160 258 329 322 527 28 84 60 235 60 280 0 14 -50 -18 -192 -121 -105
-77 -193 -138 -195 -137 -1 2 15 57 37 123 22 65 56 167 74 226 l34 108 -161
117 c-89 64 -177 128 -195 142 l-32 26 242 5 242 5 74 230 75 230 76 -232 75
-233 243 0 243 0 0 -207 c0 -115 -5 -257 -10 -317 -45 -476 -250 -907 -586
-1238 -155 -152 -292 -253 -456 -338 l-88 -46 55 -57 c30 -31 55 -61 55 -66 0
-6 -68 -114 -151 -241 l-151 -230 46 -107 c25 -60 70 -166 100 -238 l54 -130
-45 -3 c-25 -2 -49 0 -54 5 -10 10 -199 467 -199 481 0 5 66 110 146 232 l145
223 -413 416 c-227 229 -559 563 -737 742 l-323 326 -104 -71 c-58 -39 -157
-108 -221 -154 -87 -61 -122 -81 -137 -76 -12 3 -57 21 -101 39 -44 19 -287
120 -540 225 -253 106 -466 195 -473 199 -13 8 38 33 218 106 63 26 129 53
145 60 17 7 102 43 190 80 280 117 468 196 522 220 l51 23 39 -26 c21 -14 39
-29 41 -34 2 -4 10 -8 17 -8 7 0 15 -4 17 -8 2 -5 79 -60 171 -123 l168 -114
172 175 c94 96 349 355 567 575 217 220 470 477 562 570 l167 170 -144 220
c-80 121 -145 225 -145 231 0 8 321 782 457 1103 8 19 18 30 23 25 4 -5 49
-106 98 -224z m-993 -10 c3 -5 1 -10 -4 -10 -6 0 -11 5 -11 10 0 6 2 10 4 10
3 0 8 -4 11 -10z m145 -66 c0 -2 -9 -4 -20 -4 -11 0 -20 4 -20 9 0 5 9 7 20 4
11 -3 20 -7 20 -9z m-130 -71 c0 -5 -13 -17 -28 -27 l-27 -19 24 26 c26 28 31
32 31 20z m-191 -181 c-46 -48 -86 -86 -88 -84 -5 3 160 172 168 172 3 0 -33
-39 -80 -88z m-330 -24 c9 2 9 -3 1 -18 -12 -23 -22 -27 -14 -6 3 8 1 17 -5
21 -6 3 -11 16 -10 28 1 20 2 20 8 -3 4 -14 13 -24 20 -22z m601 -60 c0 -34
-19 -96 -32 -104 -7 -4 -8 -3 -4 4 4 7 3 12 -3 12 -14 0 -18 41 -7 70 18 43
46 54 46 18z m-124 -40 c-3 -7 -13 -39 -22 -70 -12 -42 -22 -58 -35 -58 -18 0
-33 56 -17 66 5 3 6 10 3 15 -4 5 -1 9 4 9 6 0 10 5 9 12 -2 6 8 17 22 25 32
16 43 16 36 1z m-161 -75 c-4 -10 -11 -45 -17 -79 -12 -70 -30 -79 -45 -22 -6
21 -7 38 -3 38 4 0 11 12 15 27 6 26 31 52 49 53 4 0 5 -8 1 -17z m-409 -30
c-8 -15 -15 -25 -16 -21 0 12 23 58 27 54 3 -2 -2 -17 -11 -33z m705 -18 c-23
-14 -46 -25 -50 -25 -10 1 73 50 84 50 6 0 -10 -11 -34 -25z m-1107 -40 c-9
-14 -18 -25 -21 -25 -5 0 5 18 20 38 17 22 18 13 1 -13z m377 -2 c-12 -20 -14
-14 -5 12 4 9 9 14 11 11 3 -2 0 -13 -6 -23z m634 -15 c-11 -6 -50 -31 -87
-55 -38 -23 -68 -41 -68 -38 0 8 153 105 165 105 6 -1 1 -6 -10 -12z m-605
-972 l0 -952 -40 -39 c-22 -21 -40 -34 -40 -27 0 9 -38 12 -141 12 l-141 0
-80 57 -81 56 41 36 c22 20 47 50 56 68 9 18 36 46 60 62 39 27 51 45 70 104
5 15 19 17 113 17 l108 0 -3 80 -4 80 -70 0 -70 0 6 45 c19 145 13 130 77 172
l58 38 1 187 0 187 -27 15 c-16 8 -23 15 -16 16 6 0 10 9 8 20 -2 10 6 31 18
46 20 25 21 38 20 228 0 111 -1 212 -1 226 -1 14 0 67 1 118 2 99 9 113 53
104 l24 -4 0 -952z m-455 907 c-15 -27 -32 -52 -38 -58 -6 -5 2 13 18 40 15
28 30 53 32 58 2 4 7 7 10 7 2 0 -7 -21 -22 -47z m4045 -842 l0 -889 -36 -27
c-19 -15 -38 -25 -41 -22 -4 5 -7 1110 -4 1700 l1 127 40 0 40 0 0 -889z
m-3826 806 c16 -12 15 -13 -13 -11 -17 1 -31 -2 -31 -7 0 -5 -7 -9 -17 -9 -14
0 -14 2 2 20 21 23 34 25 59 7z m-164 -36 c-13 -11 -28 -17 -33 -14 -11 6 23
32 43 32 10 1 7 -6 -10 -18z m537 -11 c4 -13 3 -13 -6 0 -8 11 -13 12 -22 3
-6 -6 -18 -9 -25 -6 -8 3 -14 0 -14 -6 0 -6 -8 -11 -17 -11 -15 0 -16 2 -3 10
8 5 11 10 5 10 -5 0 -3 5 5 10 21 15 73 8 77 -10z m323 -26 c0 -20 -45 -104
-54 -101 -19 6 -19 64 1 86 16 19 53 30 53 15z m-952 -11 c-10 -2 -18 -9 -18
-14 0 -5 -5 -9 -11 -9 -8 0 -8 5 1 15 7 8 20 14 29 14 13 -1 13 -2 -1 -6z
m797 -42 c-13 -20 -29 -50 -35 -68 -10 -27 -14 -30 -29 -21 -24 15 -18 62 14
103 19 25 30 31 49 28 l25 -5 -24 -37z m310 39 c3 -5 -7 -26 -22 -45 -15 -19
-30 -30 -31 -25 -2 6 -8 7 -13 4 -14 -8 -6 41 10 60 15 18 47 21 56 6z m-847
-43 c8 -9 3 -12 -24 -11 -19 1 -37 -2 -40 -7 -7 -12 -34 -11 -34 1 0 25 80 39
98 17z m128 -48 c3 -5 -11 -9 -32 -9 -30 0 -34 2 -25 14 12 14 47 11 57 -5z
m2428 2 c11 -12 14 -21 7 -26 -6 -3 -11 -2 -11 4 0 5 -9 13 -20 16 -11 4 -18
11 -15 16 9 14 20 11 39 -10z m-2194 -1 c11 -7 6 -10 -20 -10 -26 0 -31 3 -20
10 8 5 17 10 20 10 3 0 12 -5 20 -10z m-533 -6 c-3 -3 -12 -4 -19 -1 -8 3 -5
6 6 6 11 1 17 -2 13 -5z m963 -34 c-8 -5 -22 -9 -30 -9 -10 0 -8 3 5 9 27 12
43 12 25 0z m-145 -40 c-11 -5 -27 -9 -35 -9 -9 0 -8 4 5 9 11 5 27 9 35 9 9
0 8 -4 -5 -9z m-60 -18 c-11 -9 -87 -33 -101 -31 -5 1 16 9 46 19 65 22 67 22
55 12z m-182 -47 c4 -8 2 -17 -3 -20 -6 -4 -10 3 -10 14 0 25 6 27 13 6z
m-290 -42 c-3 -7 -11 -13 -18 -13 -7 0 -16 -7 -19 -16 -3 -8 -10 -12 -16 -9
-5 3 -10 0 -11 -7 0 -9 -2 -9 -5 -1 -7 17 35 62 56 60 10 -1 16 -7 13 -14z
m-278 -3 c-3 -5 -13 -10 -21 -10 -8 0 -14 -4 -14 -10 0 -5 -7 -10 -15 -10 -20
0 -19 17 3 29 22 13 55 14 47 1z m-247 -86 c1 -25 4 -55 7 -65 4 -11 0 -26 -9
-35 -15 -14 -16 -14 -16 1 0 9 -4 14 -8 11 -18 -11 -13 84 5 109 10 13 19 25
19 25 1 0 2 -21 2 -46z m726 0 c3 -8 1 -14 -4 -14 -6 0 -10 5 -10 11 0 7 -9 9
-24 5 -22 -5 -27 2 -17 31 3 8 51 -22 55 -33z m-324 16 c9 -5 20 -19 23 -30 3
-11 1 -18 -4 -14 -5 3 -9 12 -9 19 0 11 -10 13 -40 10 -27 -2 -40 0 -40 8 0
16 45 20 70 7z m3480 -35 c13 -14 21 -25 18 -25 -2 0 -15 11 -28 25 -13 14
-21 25 -18 25 2 0 15 -11 28 -25z m-3590 -59 c12 -19 12 -20 -3 -7 -9 7 -24
11 -32 7 -8 -3 -15 -1 -15 5 0 6 -9 8 -20 4 -27 -9 -25 8 3 21 25 11 47 2 67
-30z m4027 22 c-3 -8 -6 -5 -6 6 -1 11 2 17 5 13 3 -3 4 -12 1 -19z m-4617
-45 c-11 -17 -11 -17 -6 0 3 10 7 28 7 40 2 22 2 22 6 0 2 -12 -1 -30 -7 -40z
m1170 41 c0 -21 -45 -82 -56 -77 -31 12 -3 83 33 83 12 0 23 -3 23 -6z m3065
-24 c10 -11 16 -20 13 -20 -3 0 -13 9 -23 20 -10 11 -16 20 -13 20 3 0 13 -9
23 -20z m-4538 -37 c-3 -10 -5 -2 -5 17 0 19 2 27 5 18 2 -10 2 -26 0 -35z
m4930 25 c-3 -8 -6 -5 -6 6 -1 11 2 17 5 13 3 -3 4 -12 1 -19z m-4409 -110
c16 -38 -2 -44 -32 -11 -27 29 -31 59 -13 107 l11 29 12 -49 c6 -27 16 -61 22
-76z m4419 70 c-3 -8 -6 -5 -6 6 -1 11 2 17 5 13 3 -3 4 -12 1 -19z m-3936
-15 c13 -16 12 -17 -3 -5 -9 7 -19 9 -22 4 -3 -5 -20 -9 -38 -10 l-33 -1 25
14 c34 19 55 18 71 -2z m49 -3 c-6 -11 -13 -20 -16 -20 -2 0 0 9 6 20 6 11 13
20 16 20 2 0 0 -9 -6 -20z m241 -3 c-10 -9 -11 -8 -5 6 3 10 9 15 12 12 3 -3
0 -11 -7 -18z m3657 -28 c-3 -8 -7 -3 -11 10 -4 17 -3 21 5 13 5 -5 8 -16 6
-23z m9 -51 c-3 -8 -6 -5 -6 6 -1 11 2 17 5 13 3 -3 4 -12 1 -19z m-4970 -40
c-3 -8 -6 -5 -6 6 -1 11 2 17 5 13 3 -3 4 -12 1 -19z m4991 -38 c0 -9 -3 -7
-8 5 -5 11 -8 29 -8 40 0 16 2 15 8 -5 4 -14 8 -32 8 -40z m-4517 29 c23 -20
23 -20 2 -9 -13 6 -34 8 -48 6 -26 -5 -44 9 -23 17 26 11 46 6 69 -14z m99 6
c0 -8 -9 -15 -20 -15 -20 0 -26 11 -13 23 12 13 33 7 33 -8z m-246 -3 c2 -4
-3 -8 -12 -8 -9 -1 -30 -4 -47 -8 -28 -7 -29 -7 -11 8 21 17 61 21 70 8z
m-327 -59 c-3 -10 -5 -2 -5 17 0 19 2 27 5 18 2 -10 2 -26 0 -35z m5036 -109
c10 -10 9 -24 -3 -24 -5 0 -9 3 -8 8 0 4 -1 14 -5 22 -15 41 -27 85 -26 99 0
9 8 -10 17 -41 9 -31 20 -60 25 -64z m-4635 53 c6 -5 12 -13 12 -19 0 -7 -5
-6 -14 1 -15 13 -66 5 -66 -10 0 -5 -7 -9 -15 -9 -23 0 -6 28 23 38 30 10 41
10 60 -1z m112 -19 c0 -12 -3 -18 -7 -15 -3 4 -15 0 -25 -10 -20 -18 -32 -14
-23 9 5 12 33 32 53 37 1 1 2 -9 2 -21z m4837 -171 c54 -75 64 -103 51 -132
-6 -14 -14 -25 -18 -25 -4 0 -22 30 -39 66 -27 56 -64 114 -131 207 -8 12 13
-1 46 -27 34 -26 75 -66 91 -89z m-182 92 c0 -8 8 -13 18 -13 9 1 14 -2 12 -7
-3 -4 1 -12 9 -16 17 -9 46 -58 108 -181 l42 -83 -27 -55 c-15 -30 -27 -61
-27 -69 0 -27 -17 -16 -34 23 -9 20 -21 45 -26 54 -6 10 -10 22 -10 27 0 5 -5
22 -12 38 -6 15 -12 31 -13 36 -2 4 -4 10 -5 15 -2 4 -4 12 -5 17 -1 6 -7 23
-14 39 -6 16 -13 36 -14 45 -1 9 -6 22 -11 29 -4 7 -10 32 -12 55 -3 23 -6 47
-9 54 -2 6 4 10 13 9 9 -2 17 -9 17 -17z m-137 -76 c-1 -88 12 -233 21 -245 2
-2 4 -16 6 -31 2 -16 11 -39 19 -53 9 -13 16 -30 16 -39 0 -8 4 -15 8 -15 4 0
8 -9 8 -20 0 -25 0 -25 -31 6 -23 23 -56 87 -53 102 1 4 -4 27 -11 52 -17 59
-18 200 -2 273 7 31 14 57 16 57 2 0 3 -39 3 -87z m402 -77 c0 -24 -15 -19
-28 8 -12 27 -41 63 -89 114 -18 19 -33 37 -33 41 1 14 150 -148 150 -163z
m-5423 57 c-2 -21 -4 -6 -4 32 0 39 2 55 4 38 2 -18 2 -50 0 -70z m263 87 c0
-5 3 -9 8 -9 19 3 30 -2 36 -17 5 -14 4 -15 -9 -4 -12 10 -22 9 -51 -5 -42
-20 -69 -6 -29 15 14 7 25 17 25 22 0 4 5 8 10 8 6 0 10 -4 10 -10z m4817 -31
c-4 -15 -2 -19 9 -15 20 7 37 -27 21 -44 -9 -10 -9 -11 0 -6 8 4 15 -3 19 -21
16 -67 77 -239 109 -306 31 -65 46 -137 29 -137 -19 0 -114 70 -131 95 -27 41
-60 131 -67 185 -3 25 -9 56 -12 70 -13 57 0 200 18 200 6 0 8 -9 5 -21z
m-4587 -23 c0 -6 -4 -6 -11 1 -9 9 -18 7 -38 -5 -14 -9 -28 -19 -31 -22 -3 -3
-11 -6 -17 -7 -24 -5 -13 16 17 34 17 9 30 21 30 25 0 4 11 2 25 -4 14 -6 25
-16 25 -22z m459 -29 c0 -9 -2 -9 -6 1 -2 6 -11 12 -19 12 -14 0 -24 -7 -59
-37 -13 -13 -35 -18 -35 -9 0 12 47 54 65 58 25 6 55 -9 54 -25z m-765 -134
c5 -15 2 -22 -13 -26 -15 -3 -21 2 -27 22 -13 48 -13 55 4 91 l17 35 6 -50 c3
-28 9 -60 13 -72z m4169 83 c23 -19 64 -43 90 -53 44 -18 51 -24 72 -78 13
-32 29 -63 34 -68 6 -6 11 -14 11 -18 0 -3 -58 -7 -130 -8 l-130 -1 0 130 c0
72 3 130 6 130 3 0 24 -15 47 -34z m-3988 -6 c3 -5 2 -10 -4 -10 -5 0 -13 5
-16 10 -3 6 -2 10 4 10 5 0 13 -4 16 -10z m-358 -47 c-3 -10 -5 -2 -5 17 0 19
2 27 5 18 2 -10 2 -26 0 -35z m323 33 c0 -8 -9 -22 -21 -30 -12 -8 -18 -19
-15 -25 5 -7 1 -8 -10 -4 -13 5 -15 3 -9 -8 6 -11 5 -12 -5 -2 -11 10 -8 19
14 48 28 37 46 45 46 21z m406 -21 c1 -8 -2 -13 -7 -9 -5 3 -9 12 -9 21 0 19
13 9 16 -12z m-246 -51 c-12 -25 -25 -42 -28 -39 -9 9 -9 45 0 45 4 0 8 5 8
12 0 15 34 48 38 36 2 -4 -6 -29 -18 -54z m50 62 c0 -3 -4 -8 -10 -11 -5 -3
-10 -1 -10 4 0 6 5 11 10 11 6 0 10 -2 10 -4z m-853 -48 c-3 -8 -6 -5 -6 6 -1
11 2 17 5 13 3 -3 4 -12 1 -19z m1193 -9 c12 -8 10 -9 -7 -4 -16 4 -30 -1 -49
-19 -15 -13 -33 -22 -40 -19 -9 3 -5 12 14 29 29 25 58 30 82 13z m-626 -25
c9 -3 16 -11 16 -16 0 -6 -7 -5 -16 3 -9 7 -18 9 -22 3 -7 -9 -15 -11 -54 -19
-25 -5 -22 10 5 23 26 12 49 14 71 6z m-557 -111 c-2 -16 -4 -5 -4 22 0 28 2
40 4 28 2 -13 2 -35 0 -50z m754 50 c13 -15 12 -15 -7 -5 -18 9 -24 8 -35 -4
-21 -25 -67 -46 -75 -33 -8 13 1 23 41 43 39 20 59 20 76 -1z m288 -23 c-14
-9 -29 -4 -29 10 0 12 34 18 39 7 2 -5 -3 -13 -10 -17z m39 -15 c-3 -3 -9 2
-12 12 -6 14 -5 15 5 6 7 -7 10 -15 7 -18z m-1071 -92 c-3 -10 -5 -2 -5 17 0
19 2 27 5 18 2 -10 2 -26 0 -35z m610 22 c2 -17 2 -17 -5 -3 -5 12 -11 14 -21
9 -8 -5 -20 -7 -28 -4 -7 3 -13 0 -13 -5 0 -6 -9 -10 -20 -9 -23 2 -24 3 -8
21 7 7 31 13 53 12 32 -1 40 -5 42 -21z m-589 -160 c0 -22 -3 -18 -9 15 -4 25
-7 59 -7 75 0 22 3 18 9 -15 4 -25 7 -58 7 -75z m4770 68 c-16 -2 -40 -2 -55
0 -16 2 -3 4 27 4 30 0 43 -2 28 -4z m957 -46 c-48 -104 -85 -327 -66 -393 8
-28 7 -31 -10 -27 -28 8 -31 17 -30 103 1 88 13 154 38 215 16 39 83 155 89
155 2 0 -8 -24 -21 -53z m-4885 23 c0 -5 -5 -10 -11 -10 -5 0 -7 5 -4 10 3 6
8 10 11 10 2 0 4 -4 4 -10z m4026 -17 c14 -16 41 -61 60 -102 19 -41 46 -87
59 -103 14 -16 25 -35 25 -41 0 -7 -38 -38 -84 -69 l-85 -58 -135 0 -136 0 0
200 0 200 135 0 c136 0 136 0 161 -27z m-4250 -55 c-6 -4 -14 -8 -18 -8 -10 0
-10 42 -1 66 5 14 9 11 18 -17 9 -25 9 -36 1 -41z m5249 15 c9 -21 20 -40 25
-43 5 -3 11 -17 14 -30 3 -14 10 -45 17 -70 16 -66 29 -157 30 -222 1 -47 -4
-63 -26 -92 -15 -20 -30 -36 -34 -36 -14 0 -42 26 -45 40 -2 8 -6 31 -10 51
-4 20 -9 80 -11 135 -1 54 -4 100 -5 102 -3 3 -3 51 0 55 7 8 5 65 -3 81 -7
14 -6 16 3 11 10 -6 12 -1 8 18 -4 19 -1 24 10 19 10 -3 13 -1 8 6 -4 7 -5 12
-2 12 3 0 13 -17 21 -37z m86 -25 c23 -34 50 -82 59 -106 10 -25 20 -41 23
-36 3 5 -11 44 -31 86 -21 42 -32 72 -25 67 6 -6 31 -49 54 -97 37 -74 44 -98
47 -162 2 -41 1 -72 -3 -68 -8 8 -26 95 -29 136 0 12 -5 22 -9 22 -5 0 -5 -24
-1 -52 14 -88 10 -118 -17 -138 -13 -10 -26 -17 -28 -14 -3 2 -6 36 -7 75 -1
39 -5 81 -8 93 -3 13 -8 40 -12 61 -3 21 -18 74 -33 117 -16 43 -27 78 -25 78
2 0 22 -28 45 -62z m-185 18 c-1 -19 0 -35 3 -34 23 2 26 -11 25 -104 -1 -57
3 -147 8 -201 6 -54 8 -101 5 -104 -11 -10 -114 45 -119 63 -12 49 3 194 29
284 9 30 16 61 16 68 0 6 4 12 8 12 4 0 10 11 13 25 9 36 16 31 12 -9z m-5759
-48 c-3 -7 -5 -2 -5 12 0 14 2 19 5 13 2 -7 2 -19 0 -25z m293 -8 c18 -36 19
-41 5 -47 -31 -11 -65 47 -42 75 14 17 14 17 37 -28z m-283 -47 c-3 -10 -5 -4
-5 12 0 17 2 24 5 18 2 -7 2 -21 0 -30z m651 -5 c13 -49 -1 -67 -30 -41 -21
19 -23 54 -6 71 19 19 25 15 36 -30z m-422 -10 c4 -6 3 -8 -4 -5 -16 11 -42
-3 -42 -23 0 -11 -5 -22 -10 -25 -6 -4 -8 -11 -5 -16 4 -5 1 -9 -4 -9 -6 0
-11 -8 -11 -17 -1 -17 -1 -17 -11 -1 -26 45 60 140 87 96z m-206 -67 c0 -32
-6 -24 -14 19 -4 25 -3 31 4 20 5 -8 10 -26 10 -39z m13 -51 c3 -11 2 -18 -1
-16 -17 9 -50 -15 -57 -41 -12 -50 -45 -74 -40 -29 3 24 31 73 40 69 14 -5 45
11 45 23 0 20 7 17 13 -6z m5408 -27 c13 -16 12 -17 -3 -4 -10 7 -18 15 -18
17 0 8 8 3 21 -13z m-5309 -43 c2 -8 7 -18 11 -21 5 -3 2 -9 -5 -12 -8 -3 -15
0 -16 6 -1 7 -4 26 -7 42 -5 22 -4 26 4 15 5 -9 11 -22 13 -30z m109 -4 c-28
-30 -60 -40 -57 -18 3 16 66 56 75 47 2 -3 -6 -16 -18 -29z m5299 -33 c0 -7
-56 35 -71 54 -8 9 5 2 29 -17 23 -18 42 -35 42 -37z m-5249 40 c13 -16 12
-17 -3 -4 -17 13 -22 21 -14 21 2 0 10 -8 17 -17z m-124 -73 c4 -12 3 -13 -5
-1 -5 7 -15 10 -21 7 -31 -20 -76 -15 -56 6 12 12 78 2 82 -12z m-177 -35 c7
-9 10 -18 6 -22 -3 -3 -6 -1 -6 5 0 15 -11 15 -47 0 -60 -24 -69 -8 -9 18 40
17 41 17 56 -1z m10 -550 c14 -19 14 -19 -2 -6 -10 7 -18 18 -18 24 0 6 1 8 3
6 1 -2 9 -13 17 -24z m90 -115 c3 -3 26 -17 53 -30 50 -27 51 -28 38 -48 -13
-21 -57 -4 -107 42 -34 30 -44 46 -39 59 7 17 8 17 29 0 11 -10 23 -20 26 -23z
m193 -55 l6 -40 -14 40 c-7 22 -14 49 -14 60 l0 20 8 -20 c5 -11 11 -38 14
-60z m4449 -9 c131 -22 139 -24 207 -71 39 -27 71 -51 71 -55 0 -17 -75 -234
-107 -310 -211 -499 -650 -927 -1153 -1120 -47 -18 -94 -37 -105 -41 -21 -10
-116 -39 -125 -39 -11 0 -41 60 -35 70 3 5 -10 102 -30 216 -20 113 -35 213
-33 221 2 9 40 28 95 48 51 18 145 61 209 94 88 47 119 59 125 49 4 -7 31 -46
61 -87 134 -185 150 -215 137 -236 -7 -11 -22 -36 -33 -55 l-21 -34 40 23 c65
40 175 120 260 191 72 61 228 221 248 256 4 8 -1 31 -14 56 -12 24 -30 67 -38
97 -16 51 -42 83 -56 69 -4 -3 -1 -24 6 -47 21 -71 -4 -154 -101 -326 -32 -56
-35 -58 -41 -35 -4 14 -7 49 -8 78 -2 91 -41 127 -41 38 0 -38 -42 -142 -68
-168 -5 -5 -55 57 -111 137 l-103 146 104 102 c57 56 128 135 157 174 32 43
58 70 65 66 6 -4 90 -59 186 -124 l176 -116 51 86 c53 87 153 291 153 311 0 6
-7 27 -17 48 l-16 37 -8 -40 c-15 -85 -97 -285 -116 -285 -2 0 -80 50 -173
111 l-168 111 39 82 c21 45 50 120 65 167 32 99 64 140 103 133 14 -3 87 -15
163 -28z m-3221 -73 c53 -54 102 -113 109 -131 7 -18 15 -31 17 -28 3 2 -1 15
-7 28 -8 15 3 8 33 -21 42 -40 45 -46 29 -57 -9 -7 -21 -10 -26 -7 -10 7 50
-105 73 -136 l16 -21 39 26 38 26 134 -133 c74 -74 134 -138 134 -143 0 -5
-12 -24 -26 -43 -14 -19 -24 -40 -21 -47 3 -7 27 -27 54 -44 26 -17 54 -37 62
-44 11 -9 19 -6 38 18 l23 29 162 -163 162 -162 -16 -98 c-48 -286 -61 -348
-81 -377 -12 -16 -24 -32 -27 -35 -3 -3 -10 -16 -17 -30 -11 -27 -15 -16 155
-422 l41 -98 -58 0 c-71 0 -69 -3 -77 160 -5 94 -10 122 -29 155 -12 22 -25
60 -29 85 -4 25 -17 61 -29 80 -46 71 -48 74 -30 81 13 4 10 8 -12 13 -71 18
-289 110 -385 164 -74 42 -109 56 -117 49 -12 -9 -15 -6 -17 20 -1 6 -33 34
-71 62 -78 55 -130 97 -234 186 -39 33 -82 69 -96 80 -15 11 -27 28 -29 39 -2
16 -68 104 -121 162 -11 12 -27 33 -35 47 -67 112 -97 156 -113 160 -10 3 -15
11 -11 20 3 9 -17 63 -45 120 -28 58 -51 108 -51 111 0 3 -8 25 -18 49 -29 66
-62 173 -62 199 0 16 10 30 31 42 17 10 32 16 33 14 2 -1 11 -32 20 -68 77
-284 252 -598 451 -809 37 -39 71 -68 76 -65 5 3 9 -1 9 -10 0 -32 216 -207
370 -298 105 -63 351 -178 380 -178 2 0 -19 24 -47 53 -28 28 -54 62 -58 75
-11 37 -51 77 -97 97 -24 11 -62 36 -85 57 -24 21 -47 38 -53 38 -19 0 -10 17
81 146 78 112 88 130 74 139 -9 6 -40 27 -68 48 -28 20 -54 37 -57 37 -4 0
-49 -61 -100 -135 -52 -74 -97 -135 -101 -135 -9 0 -19 38 -19 73 0 35 -20 75
-55 107 -15 14 -33 39 -40 55 -7 17 -30 47 -52 67 l-39 38 -39 -20 c-47 -24
-45 -24 -45 -2 0 9 -9 31 -20 47 -11 17 -20 46 -20 65 0 33 5 38 105 104 58
38 105 72 105 77 0 4 -19 37 -41 74 -40 63 -43 65 -63 51 -12 -8 -62 -40 -111
-72 l-89 -58 -37 44 -37 43 -39 -20 c-21 -12 -37 -25 -36 -30 1 -5 -5 -10 -13
-10 -13 0 -14 9 -9 48 8 54 -1 75 -51 132 -19 20 -34 46 -34 56 0 11 -11 41
-25 67 -14 26 -25 55 -25 66 0 15 -3 17 -19 8 -26 -13 -31 -13 -31 5 0 30 55
50 204 76 83 15 160 27 171 28 13 1 54 -33 116 -96z m4032 25 c-27 -29 -58
-66 -68 -83 -11 -16 -23 -32 -26 -35 -17 -13 -82 -137 -98 -188 -10 -31 -19
-86 -20 -122 -1 -36 -4 -73 -7 -84 -11 -35 -24 5 -23 74 0 140 49 264 144 368
42 47 130 121 144 122 2 0 -18 -24 -46 -52z m-5834 -2 c-3 -3 -11 5 -18 17
-13 21 -12 21 5 5 10 -10 16 -20 13 -22z m609 -66 c0 -8 -6 1 -13 20 -7 19
-13 42 -13 50 0 8 6 -1 13 -20 7 -19 13 -42 13 -50z m195 -27 c23 -24 36 -44
29 -44 -7 -1 -18 -2 -24 -3 -7 -1 -19 4 -26 11 -7 7 -21 13 -29 13 -9 0 -14 3
-10 6 3 4 0 19 -8 35 -8 15 -15 43 -15 61 l0 33 21 -35 c12 -19 39 -54 62 -77z
m3926 10 c-74 -212 -222 -438 -391 -599 -114 -109 -301 -235 -433 -293 -72
-33 -178 -72 -181 -68 -2 2 67 72 152 157 l155 155 24 -29 24 -30 55 43 c31
23 56 45 56 49 0 4 -11 23 -24 42 l-23 35 137 144 137 145 31 -22 c16 -12 33
-22 36 -22 4 0 25 28 47 63 40 62 40 62 19 76 -21 14 -18 18 92 128 62 62 114
113 115 113 1 0 -11 -39 -28 -87z m1161 67 c0 -5 -9 -19 -21 -31 -17 -17 -18
-23 -9 -32 10 -9 11 -9 5 2 -6 10 -4 12 4 7 14 -9 10 -25 -31 -126 -59 -145
-86 -234 -118 -393 -17 -82 -25 -87 -46 -26 -22 67 -23 70 -27 147 -4 67 18
169 43 200 8 10 16 25 18 33 2 8 10 21 18 30 8 8 14 19 14 24 0 12 81 117 103
133 10 8 23 20 30 27 15 17 17 18 17 5z m-5870 -20 c6 -11 8 -20 6 -20 -3 0
-10 9 -16 20 -6 11 -8 20 -6 20 3 0 10 -9 16 -20z m917 -27 c-3 -10 -5 -2 -5
17 0 19 2 27 5 18 2 -10 2 -26 0 -35z m5033 2 c0 -3 -6 -3 -12 2 -7 4 -5 -6 6
-21 10 -16 14 -26 10 -23 -5 3 -10 -25 -11 -62 -1 -36 -9 -102 -18 -146 -10
-44 -18 -84 -19 -90 -4 -19 -29 -60 -71 -115 -23 -30 -57 -81 -75 -113 -18
-32 -34 -56 -37 -53 -3 3 2 36 10 73 9 37 21 99 27 138 6 38 16 75 21 81 5 7
9 16 8 20 -1 5 3 23 10 39 7 17 14 37 16 45 2 8 14 42 26 75 13 33 24 62 25
65 9 30 30 70 37 70 4 0 5 5 2 10 -3 6 -1 10 4 10 6 0 11 7 11 16 0 14 2 14
15 0 8 -8 15 -17 15 -21z m72 -180 c0 -108 -8 -133 -51 -151 -29 -12 -32 -12
-27 4 9 31 28 107 32 127 2 11 7 65 11 120 l7 100 14 -55 c8 -30 14 -95 14
-145z m-5948 95 c20 -27 33 -50 28 -50 -7 0 -76 100 -68 100 2 0 20 -22 40
-50z m833 -2 c-2 -13 -4 -5 -4 17 -1 22 1 32 4 23 2 -10 2 -28 0 -40z m5149
-103 c4 -61 2 -84 -8 -99 -12 -16 -14 -2 -14 108 1 133 12 129 22 -9z m-4857
64 c16 -32 17 -41 6 -45 -36 -14 -75 43 -50 73 16 20 23 15 44 -28z m-302 -61
c-2 -13 -4 -5 -4 17 -1 22 1 32 4 23 2 -10 2 -28 0 -40z m-747 -8 c30 -43 18
-37 -16 7 -15 20 -23 33 -16 29 6 -3 21 -20 32 -36z m1001 -108 c-6 -2 -8 -8
-5 -14 3 -5 -8 -2 -25 7 -34 17 -56 58 -46 84 5 13 15 6 47 -29 22 -24 35 -46
29 -48z m-918 1 c30 -38 95 -110 145 -160 50 -51 87 -93 82 -93 -10 0 -193
195 -249 268 -23 28 -39 52 -37 52 3 0 30 -30 59 -67z m447 -41 c0 -2 -4 0
-10 3 -5 3 -10 1 -10 -5 0 -14 -43 -8 -64 9 -16 13 -22 62 -10 74 6 5 94 -71
94 -81z m557 26 c-3 -8 -6 -5 -6 6 -1 11 2 17 5 13 3 -3 4 -12 1 -19z m-510
-20 c-3 -8 -6 -5 -6 6 -1 11 2 17 5 13 3 -3 4 -12 1 -19z m770 -102 c-7 -21
-27 -16 -40 11 -22 44 -9 63 19 27 13 -16 23 -33 21 -38z m-280 -8 c-3 -7 -5
-2 -5 12 0 14 2 19 5 13 2 -7 2 -19 0 -25z m-598 -18 c27 -17 52 -37 55 -46 3
-8 2 -13 -3 -9 -5 3 -11 1 -13 -4 -5 -14 -77 14 -93 36 -17 21 -19 53 -5 53 5
0 32 -14 59 -30z m138 -22 c-3 -7 -5 -2 -5 12 0 14 2 19 5 13 2 -7 2 -19 0
-25z m450 -10 c-3 -7 -5 -2 -5 12 0 14 2 19 5 13 2 -7 2 -19 0 -25z m-440 -30
c-3 -8 -6 -5 -6 6 -1 11 2 17 5 13 3 -3 4 -12 1 -19z m430 -60 c-2 -13 -4 -5
-4 17 -1 22 1 32 4 23 2 -10 2 -28 0 -40z m-527 -68 c25 -12 47 -24 49 -26 1
-1 -6 -13 -18 -25 -12 -13 -21 -17 -21 -10 0 7 -6 11 -14 8 -7 -3 -23 1 -34 8
-10 8 -22 11 -26 8 -3 -3 -6 1 -6 11 0 9 -4 15 -9 12 -11 -7 -23 19 -28 64
l-5 35 34 -31 c18 -18 53 -42 78 -54z m143 -28 c14 -52 21 -90 17 -85 -7 7
-50 162 -50 179 0 20 11 -10 33 -94z m5127 -5 c0 -2 -17 -19 -37 -38 l-38 -34
34 38 c33 34 41 42 41 34z m-517 -52 c-51 -25 -93 -49 -93 -54 0 -5 -10 -11
-22 -15 -13 -3 -44 -26 -70 -51 -27 -25 -48 -42 -48 -38 0 4 -14 -13 -32 -38
-18 -24 -38 -48 -45 -52 -7 -4 -13 -17 -13 -27 0 -11 -4 -20 -9 -20 -5 0 -14
-14 -21 -31 -8 -18 -16 -26 -20 -19 -12 19 1 63 35 115 31 48 75 103 75 93 0
-2 21 16 48 41 26 25 70 57 97 70 28 13 62 30 77 38 15 7 30 14 33 14 2 0 10
1 17 4 86 28 82 14 -9 -30z m-5093 -134 c14 -13 -2 -2 -35 26 -33 28 -78 71
-100 94 -36 39 73 -57 135 -120z m721 142 c13 -15 12 -15 -8 -3 -19 12 -24 12
-40 -2 -10 -8 -24 -13 -32 -10 -8 2 -11 0 -8 -5 3 -5 0 -10 -8 -10 -40 0 15
46 56 46 15 1 33 -6 40 -16z m122 -28 c-26 -19 -29 -10 -7 22 16 24 19 25 22
10 2 -10 -5 -25 -15 -32z m3964 3 c-3 -7 -5 -2 -5 12 0 14 2 19 5 13 2 -7 2
-19 0 -25z m-3368 -14 c22 -38 27 -59 11 -49 -5 3 -10 0 -10 -7 0 -9 -3 -9
-10 2 -5 8 -10 11 -10 5 0 -5 -8 5 -16 22 -13 27 -14 36 -4 48 16 20 15 20 39
-21z m3746 17 c3 -5 2 -12 -3 -15 -5 -3 -9 1 -9 9 0 17 3 19 12 6z m-4114 -23
c24 -27 24 -36 0 -14 -11 10 -28 15 -42 12 -77 -18 -103 -13 -56 10 37 19 78
16 98 -8z m4075 -3 c-10 -8 -18 -25 -18 -39 0 -17 -15 -38 -42 -64 -23 -22
-62 -63 -86 -92 -25 -29 -54 -63 -66 -75 -12 -11 -46 -58 -76 -102 -41 -63
-57 -80 -68 -73 -8 5 -15 13 -16 17 0 4 -6 20 -12 35 -17 41 14 128 68 187 16
18 30 38 30 44 0 6 3 8 6 5 3 -3 15 4 28 16 48 45 89 77 129 98 23 13 48 29
55 36 7 6 16 12 20 13 23 2 45 8 50 13 3 3 8 3 11 0 3 -3 -2 -12 -13 -19z
m-4766 -70 c25 -5 30 -11 28 -28 -7 -53 -124 2 -145 69 l-10 31 48 -33 c27
-18 62 -35 79 -39z m817 -62 c-2 -27 -3 -5 -3 47 0 52 1 74 3 48 2 -27 2 -69
0 -95z m-696 109 c-12 -23 -41 -48 -41 -35 0 5 7 19 16 31 19 27 39 30 25 4z
m1006 -29 c-3 -10 -5 -4 -5 12 0 17 2 24 5 18 2 -7 2 -21 0 -30z m3653 33 c0
-2 -8 -10 -17 -17 -16 -13 -17 -12 -4 4 13 16 21 21 21 13z m71 -10 c15 9 5
-20 -11 -33 -13 -11 -13 -12 0 -13 13 0 13 -1 0 -10 -8 -5 -11 -12 -7 -16 9
-9 -63 -139 -124 -226 -26 -36 -45 -69 -41 -74 4 -4 1 -4 -6 0 -9 5 -15 1 -19
-13 -3 -12 -12 -21 -20 -21 -8 0 -17 -8 -20 -17 -6 -25 -67 -53 -113 -53 -22
0 -40 3 -40 6 0 13 81 152 95 164 8 7 15 17 15 22 0 6 11 19 25 30 14 11 25
23 25 28 0 4 17 25 38 47 20 22 60 65 89 95 28 31 53 55 55 53 2 -2 12 7 23
19 11 13 22 20 23 15 2 -5 8 -7 13 -3z m-675 -63 c-11 -11 -17 4 -9 23 7 18 8
18 11 1 2 -10 1 -21 -2 -24z m710 -73 c-16 -85 -57 -178 -109 -245 -35 -44
-74 -85 -85 -86 -81 -9 -84 -9 -71 9 11 15 34 40 94 105 61 65 173 262 176
308 0 10 2 10 5 2 3 -7 -1 -49 -10 -93z m-4315 53 c13 -15 12 -15 -8 -5 -17
10 -25 9 -37 -3 -8 -8 -22 -15 -31 -15 -9 0 -14 -4 -11 -9 3 -5 -3 -11 -14
-14 -28 -7 -25 10 8 38 32 28 74 32 93 8z m-341 -21 c0 -16 -27 -82 -34 -82
-7 0 -4 50 5 73 13 31 29 36 29 9z m-495 -56 c28 -27 27 -27 -12 3 -24 18 -46
38 -50 44 -9 15 22 -9 62 -47z m955 47 c-22 -8 -50 -35 -45 -43 2 -4 -2 -7
-10 -7 -10 0 -11 5 -4 18 11 21 38 39 59 38 13 -1 13 -1 0 -6z m4219 -55 c-29
-133 -108 -288 -152 -296 -20 -4 -22 11 -4 30 56 56 132 199 143 269 4 21 10
39 14 39 4 0 4 -19 -1 -42z m-4536 -64 c-9 -27 -18 -43 -21 -35 -4 11 -6 11
-14 0 -7 -10 -8 -4 -3 16 6 27 44 80 52 72 1 -2 -5 -26 -14 -53z m52 46 c3 -5
-1 -10 -9 -10 -9 0 -16 5 -16 10 0 6 4 10 9 10 6 0 13 -4 16 -10z m574 -73
c25 -28 31 -41 23 -49 -8 -8 -20 -5 -46 13 -19 13 -33 25 -31 27 2 3 -2 11
-10 18 -7 8 -12 22 -10 31 2 10 4 25 5 33 1 10 7 7 18 -10 9 -14 32 -42 51
-63z m-986 19 c15 -3 27 -11 27 -17 0 -6 -9 -8 -20 -5 -11 3 -29 9 -41 12 -24
7 -59 34 -59 46 0 4 15 -1 33 -11 17 -10 44 -21 60 -25z m632 4 c8 -13 -1 -13
-23 1 -15 10 -24 7 -46 -12 -15 -13 -36 -25 -47 -25 -19 -1 -19 -1 -2 19 38
43 97 51 118 17z m-425 -31 c0 -20 -4 -28 -12 -23 -7 4 -8 3 -4 -4 8 -13 -17
-56 -26 -46 -13 12 21 104 38 104 2 0 4 -14 4 -31z m49 21 c-6 -5 -18 -6 -26
-3 -19 8 -16 11 13 11 17 0 22 -3 13 -8z m838 -57 c-2 -16 -4 -5 -4 22 0 28 2
40 4 28 2 -13 2 -35 0 -50z m-1002 41 c14 -11 15 -15 5 -14 -21 3 -60 -11 -60
-20 0 -14 -29 -20 -36 -7 -4 7 -4 9 1 5 4 -4 18 6 32 23 28 33 31 34 58 13z
m410 -74 c3 -5 -1 -10 -11 -10 -9 0 -32 -9 -50 -21 -30 -18 -34 -19 -34 -4 0
9 15 22 33 30 39 17 54 18 62 5z m592 -97 c-2 -21 -4 -6 -4 32 0 39 2 55 4 38
2 -18 2 -50 0 -70z m-956 40 c-5 -10 -16 -26 -23 -36 -13 -17 -14 -17 -15 2
-1 12 8 28 20 36 27 19 30 19 18 -2z m479 -8 c11 -13 10 -14 -4 -9 -10 4 -16
1 -16 -7 0 -7 -3 -9 -7 -6 -3 4 -12 2 -20 -4 -16 -14 -17 -5 -1 21 15 24 31
25 48 5z m-564 -20 c18 -14 18 -14 -3 -8 -13 3 -34 -2 -48 -11 -32 -21 -52
-21 -34 0 12 14 43 31 60 33 3 1 14 -6 25 -14z m-371 -43 c-3 -3 -11 0 -18 7
-9 10 -8 11 6 5 10 -3 15 -9 12 -12z m195 -78 c23 -9 39 -18 37 -20 -2 -3 -24
4 -48 15 -54 24 -45 27 11 5z m838 -19 c-3 -3 -9 2 -12 12 -6 14 -5 15 5 6 7
-7 10 -15 7 -18z m-183 -5 c18 -8 17 -9 -7 -9 -16 -1 -28 4 -28 9 0 12 8 12
35 0z m855 -36 c28 -13 50 -26 50 -29 0 -3 -4 -4 -9 0 -6 3 -14 -1 -18 -10
-16 -29 -90 5 -106 48 -10 26 1 41 19 26 8 -7 37 -22 64 -35z m127 -16 c-3 -8
-6 -5 -6 6 -1 11 2 17 5 13 3 -3 4 -12 1 -19z m57 -162 c14 -44 24 -81 22 -83
-3 -4 -46 116 -63 177 -14 50 19 -26 41 -94z m-141 4 c57 -25 62 -33 37 -55
-11 -10 -20 -14 -20 -9 0 5 -12 9 -27 8 -16 0 -35 7 -44 17 -9 10 -18 17 -20
15 -2 -2 -13 8 -23 22 -12 15 -14 22 -5 17 11 -6 12 -5 2 6 -7 7 -13 21 -13
32 0 16 3 16 33 -7 18 -14 54 -35 80 -46z m1711 13 c-65 -102 -74 -120 -95
-190 -16 -52 -21 -96 -21 -190 l0 -123 -68 0 -68 0 85 202 c46 111 87 207 91
213 4 5 14 27 21 48 10 30 10 41 0 53 -14 17 -13 18 26 32 65 23 68 16 29 -45z
m-3106 -70 c43 -32 52 -60 52 -171 0 -116 -12 -152 -60 -177 -61 -32 -175 -12
-200 34 -14 27 -14 28 19 39 23 8 32 7 45 -6 19 -19 78 -21 100 -3 9 8 16 29
16 48 0 31 -1 33 -21 22 -37 -20 -116 -6 -149 26 -26 25 -30 36 -30 85 0 64
17 95 64 116 43 20 129 13 164 -13z m342 -99 c0 -69 4 -114 10 -114 6 0 10
-13 10 -30 0 -16 -4 -30 -10 -30 -5 0 -10 -20 -10 -45 0 -45 0 -45 -34 -45
-34 0 -35 1 -38 43 l-3 42 -74 3 c-73 3 -100 15 -101 48 0 11 164 234 180 244
6 4 24 5 40 2 l30 -4 0 -114z m271 100 c12 -10 28 -34 36 -52 13 -31 12 -38
-5 -72 -18 -37 -18 -37 5 -64 36 -42 32 -99 -9 -140 -58 -58 -160 -55 -221 6
l-31 30 25 19 c30 23 35 23 66 -1 29 -23 51 -25 88 -8 54 24 16 88 -53 88 -31
0 -33 2 -30 32 3 29 6 32 37 33 41 1 65 28 50 56 -12 24 -75 26 -100 3 -16
-15 -20 -14 -44 8 -25 23 -25 25 -8 40 56 51 150 62 194 22z m4113 12 c59 -24
66 -45 66 -187 0 -123 -1 -127 -27 -153 -33 -33 -59 -40 -129 -34 -45 4 -61
10 -86 35 l-31 31 33 17 c30 15 33 15 51 -1 23 -21 80 -24 103 -5 9 8 16 29
16 48 0 30 -3 34 -17 27 -68 -30 -150 -8 -179 48 -20 39 -14 110 12 140 41 46
124 61 188 34z m-5014 -186 l0 -190 -35 0 -35 0 0 137 c0 131 -1 135 -18 120
-16 -15 -20 -15 -40 -1 -31 21 -28 32 20 81 33 33 50 43 75 43 l33 0 0 -190z
m4750 0 l0 -190 -35 0 -35 0 0 136 0 135 -22 -15 c-20 -14 -24 -14 -45 6 l-22
21 42 48 c36 41 47 48 80 49 l37 0 0 -190z m567 180 c37 0 83 -51 83 -92 0
-19 -6 -43 -14 -53 -12 -17 -11 -23 10 -48 13 -16 24 -40 24 -54 0 -39 -30
-92 -61 -108 -37 -19 -132 -19 -169 0 -60 31 -78 112 -35 163 22 27 23 30 8
45 -26 26 -22 83 9 113 25 26 81 46 106 38 8 -2 25 -4 39 -4z m273 -180 l0
-190 -35 0 -35 0 0 130 c0 100 -3 130 -13 130 -7 0 -17 -4 -22 -9 -6 -6 -19
-2 -33 9 l-24 19 44 51 c37 43 48 50 81 50 l37 0 0 -190z m-3716 80 c5 -17 4
-20 -2 -10 -5 8 -13 26 -16 40 -5 17 -4 20 2 10 5 -8 13 -26 16 -40z m-214
-10 c14 -9 51 -25 83 -34 58 -18 58 -18 35 -34 -28 -20 -74 -16 -101 9 -12 10
-24 19 -29 19 -7 0 -38 52 -38 65 0 7 11 1 50 -25z m240 -55 c0 -5 -5 -3 -10
5 -5 8 -10 20 -10 25 0 6 5 3 10 -5 5 -8 10 -19 10 -25z m70 -143 c33 -68 60
-126 59 -130 0 -9 -128 240 -128 252 -1 17 8 1 69 -122z m-395 98 c3 -5 1 -10
-4 -10 -6 0 -11 5 -11 10 0 6 2 10 4 10 3 0 8 -4 11 -10z m215 -131 c36 -7 69
-16 74 -20 10 -9 -31 -32 -47 -26 -7 2 -20 0 -31 -5 -12 -7 -16 -7 -12 0 3 5
-5 13 -18 16 -24 6 -86 55 -86 67 0 4 12 1 28 -6 15 -7 56 -19 92 -26z m1335
-249 l39 -40 -45 0 c-25 0 -50 5 -57 12 -9 9 -15 9 -24 0 -7 -7 -30 -12 -52
-12 l-40 0 39 40 c29 30 47 40 70 40 23 0 41 -10 70 -40z m-1057 -79 c41 -22
52 -61 52 -184 0 -112 -1 -116 -28 -145 -27 -29 -84 -52 -127 -52 -42 0 -99
23 -127 50 -28 28 -28 30 -28 150 0 160 17 188 125 200 54 6 98 0 133 -19z
m1081 3 c50 -30 61 -61 61 -179 0 -75 -4 -114 -15 -135 -41 -79 -196 -91 -267
-20 -28 28 -28 29 -28 154 0 115 2 127 23 151 46 54 159 68 226 29z m-1466 5
c50 -13 77 -57 77 -122 0 -40 -5 -54 -28 -76 -15 -15 -34 -30 -42 -33 -11 -3
-1 -22 38 -71 28 -37 52 -69 52 -72 0 -4 -21 -5 -47 -3 -45 3 -49 6 -98 70
-28 37 -58 67 -67 68 -16 0 -18 -10 -18 -70 l0 -70 -40 0 -40 0 0 195 0 195
88 0 c48 0 104 -5 125 -11z m639 -79 c27 -47 60 -109 74 -137 13 -29 25 -53
27 -53 2 0 0 25 -5 57 -5 31 -7 93 -6 137 l3 81 38 0 37 1 0 -193 0 -193 -39
0 -40 0 -65 109 c-36 60 -66 114 -66 119 0 6 -3 13 -7 15 -5 3 -7 -51 -5 -119
l4 -124 -41 0 -41 0 0 188 c0 104 2 191 5 194 3 3 22 5 42 4 34 -1 38 -5 85
-86z m427 84 c18 -4 45 -20 62 -36 l29 -30 0 -125 0 -125 -30 -28 c-35 -33
-66 -40 -171 -40 l-79 0 0 195 0 195 79 0 c43 0 93 -3 110 -6z m614 -5 c12
-13 127 -219 127 -227 0 -4 6 -17 14 -27 12 -17 13 -13 5 32 -6 29 -8 92 -7
140 l3 88 38 0 37 1 0 -194 0 -193 -41 3 c-41 3 -43 5 -93 89 -29 47 -60 102
-69 122 -10 20 -19 37 -20 37 -1 0 0 -56 2 -125 l3 -125 -41 0 -41 0 0 194 0
194 40 -2 c22 -1 41 -4 43 -7z m357 -185 l0 -194 -35 0 -35 0 0 194 0 194 35
0 35 0 0 -194z m244 185 c1 -2 17 -47 36 -99 18 -52 48 -137 66 -187 l33 -93
-40 0 c-38 0 -41 2 -59 45 l-19 45 -59 0 -58 0 -15 -42 c-15 -41 -18 -43 -58
-46 -32 -2 -42 0 -38 10 3 7 31 90 63 183 31 94 61 175 66 182 8 10 75 11 82
2z"/>
<path d="M3137 3719 c7 -7 15 -10 18 -7 3 3 -2 9 -12 12 -14 6 -15 5 -6 -5z"/>
<path d="M3202 3655 c15 -14 31 -25 35 -25 4 0 -4 11 -19 25 -15 14 -31 25
-35 25 -4 0 4 -11 19 -25z"/>
<path d="M5841 6354 c0 -11 3 -14 6 -6 3 7 2 16 -1 19 -3 4 -6 -2 -5 -13z"/>
<path d="M5421 4554 c0 -11 3 -14 6 -6 3 7 2 16 -1 19 -3 4 -6 -2 -5 -13z"/>
<path d="M4460 3481 c0 -53 -58 -140 -136 -206 -33 -27 -63 -53 -69 -58 -15
-13 90 34 165 75 l65 35 7 79 c8 88 4 114 -18 114 -10 0 -14 -12 -14 -39z"/>
<path d="M848 2869 c-25 -14 -24 -65 1 -79 49 -26 111 -4 111 38 0 16 -5 33
-12 40 -15 15 -76 15 -100 1z"/>
<path d="M1212 2784 l-42 -64 44 0 44 0 4 65 c1 36 1 65 -2 64 -3 0 -24 -29
-48 -65z"/>
<path d="M5592 2868 c-19 -19 -15 -66 7 -78 50 -26 111 -4 111 40 0 19 -7 33
-19 40 -27 14 -84 13 -99 -2z"/>
<path d="M5932 2868 c-35 -35 13 -81 66 -62 30 11 40 37 22 59 -15 18 -71 20
-88 3z"/>
<path d="M5933 2730 c-17 -7 -23 -18 -23 -38 0 -37 20 -54 65 -54 43 0 65 16
65 48 0 42 -55 65 -107 44z"/>
<path d="M2623 2210 c-34 -14 -43 -43 -40 -130 1 -59 6 -83 17 -90 29 -18 78
-22 107 -8 28 13 28 15 31 109 2 74 -1 99 -12 108 -20 16 -76 23 -103 11z"/>
<path d="M3713 2210 c-33 -14 -43 -42 -43 -122 0 -95 11 -111 77 -112 75 -1
83 9 83 119 0 67 -4 96 -14 104 -20 16 -76 23 -103 11z"/>
<path d="M2250 2160 l0 -50 52 5 c60 6 78 18 78 51 0 30 -27 44 -84 44 l-46 0
0 -50z"/>
<path d="M3337 2203 c-2 -5 -5 -56 -6 -115 l-2 -108 49 0 c77 0 85 11 83 116
-1 70 -5 92 -18 102 -18 13 -99 17 -106 5z"/>
<path d="M4617 2190 c-8 -23 -27 -107 -27 -119 0 -6 16 -11 36 -11 33 0 36 2
30 23 -4 12 -13 45 -20 72 -8 28 -16 43 -19 35z"/>
<path d="M3434 8655 c0 -82 2 -115 3 -72 2 43 2 110 0 150 -1 40 -3 5 -3 -78z"/>
<path d="M4830 5990 l0 -70 58 -2 57 -1 -55 -7 -55 -7 60 -1 60 -2 -3 80 -4
80 -59 0 -59 0 0 -70z"/>
<path d="M3387 1673 c-4 -3 -34 -7 -68 -8 -33 -2 -63 -5 -66 -8 -5 -5 -5 -418
0 -423 2 -3 290 -6 395 -5 l52 1 0 214 0 215 -127 4 c-71 2 -140 6 -154 10
-14 4 -29 4 -32 0z m117 -136 l17 -58 60 2 c32 1 61 0 63 -2 3 -3 -17 -20 -45
-38 -27 -19 -49 -39 -49 -46 0 -7 9 -38 20 -70 12 -36 15 -54 7 -48 -6 5 -31
24 -55 43 l-44 33 -58 -41 -59 -42 21 60 c11 33 25 60 31 60 6 0 -17 20 -51
45 -34 25 -62 48 -62 51 0 3 30 4 67 2 l67 -3 20 63 c11 34 23 59 26 55 3 -5
14 -34 24 -66z"/>
<path d="M3689 1671 c7 -5 17 -15 22 -22 6 -10 9 -8 9 9 0 16 -6 22 -22 22
-17 0 -19 -3 -9 -9z"/>
<path d="M2650 1643 c0 -12 3 -14 8 -6 4 6 32 13 62 16 l55 3 -62 2 c-54 2
-63 0 -63 -15z"/>
<path d="M4172 1652 c-7 -5 16 -6 50 -4 50 4 64 1 74 -13 12 -16 13 -16 11 4
-1 19 -7 21 -62 21 -33 0 -66 -4 -73 -8z"/>
<path d="M2813 1643 c15 -2 37 -2 50 0 12 2 0 4 -28 4 -27 0 -38 -2 -22 -4z"/>
<path d="M4068 1643 c7 -3 16 -2 19 1 4 3 -2 6 -13 5 -11 0 -14 -3 -6 -6z"/>
<path d="M4113 1643 c9 -2 23 -2 30 0 6 3 -1 5 -18 5 -16 0 -22 -2 -12 -5z"/>
<path d="M2988 1633 c7 -3 16 -2 19 1 4 3 -2 6 -13 5 -11 0 -14 -3 -6 -6z"/>
<path d="M3718 1493 c0 -65 -1 -127 -2 -137 0 -11 5 -21 13 -24 8 -3 11 0 7 7
-4 6 -2 11 3 11 6 0 11 7 11 16 0 9 5 12 13 8 7 -5 6 0 -3 11 -8 10 -10 16 -4
12 7 -4 15 0 18 9 5 12 10 13 19 5 10 -8 20 -6 37 6 13 9 20 11 16 5 -10 -16
6 -15 23 1 11 10 13 10 7 0 -4 -7 -3 -13 1 -13 5 0 15 6 22 13 11 10 13 10 7
0 -4 -7 -3 -13 1 -13 5 0 15 6 22 13 11 10 13 10 7 0 -4 -7 -3 -13 1 -13 5 0
15 6 22 13 11 10 13 10 7 0 -4 -7 -3 -13 1 -13 5 0 15 6 22 13 11 10 13 10 7
0 -4 -7 -3 -13 1 -13 5 0 15 6 22 13 11 10 13 10 7 0 -4 -7 -3 -13 1 -13 5 0
15 6 22 13 11 10 13 10 7 0 -4 -7 -3 -13 1 -13 5 0 15 6 22 13 11 10 13 10 7
0 -4 -7 -3 -13 1 -13 5 0 15 6 22 13 11 10 13 10 7 0 -4 -7 -3 -13 1 -13 5 0
15 6 22 13 11 10 13 10 7 0 -9 -16 6 -17 21 -2 8 8 13 8 17 0 10 -15 29 -14
20 2 -6 10 -4 10 7 0 16 -16 33 -17 23 -2 -4 8 0 8 15 0 32 -18 41 -5 41 58 0
49 -3 59 -19 64 -10 2 -24 1 -30 -2 -6 -4 -33 -5 -61 -1 -27 3 -47 3 -44 -2 7
-11 -4 -10 -28 3 -16 9 -19 8 -13 -2 6 -9 3 -10 -11 -5 -26 11 -142 13 -180 3
-18 -4 -42 -3 -55 2 -13 4 -34 5 -46 0 -13 -5 -22 -5 -20 0 1 4 -13 22 -30 40
l-33 33 -2 -119z"/>
<path d="M3203 1574 c-13 -14 -23 -31 -23 -37 0 -7 -4 -6 -10 3 -8 13 -10 12
-10 -3 0 -17 -1 -17 -16 -3 -18 19 -28 21 -18 4 5 -8 2 -9 -12 -3 -27 11 -423
12 -416 1 3 -5 -2 -7 -11 -3 -15 6 -17 -2 -17 -57 0 -34 3 -66 7 -69 3 -4 17
0 31 9 13 9 21 11 18 5 -10 -15 7 -14 23 2 11 10 13 10 7 0 -4 -7 -3 -13 1
-13 5 0 15 6 22 13 11 10 13 10 7 0 -4 -7 -3 -13 1 -13 5 0 15 6 22 13 11 10
13 10 7 0 -4 -7 -3 -13 1 -13 5 0 15 6 22 13 11 10 13 10 7 0 -4 -7 -3 -13 1
-13 5 0 15 6 22 13 11 10 13 10 7 0 -4 -7 -3 -13 1 -13 5 0 15 6 22 13 11 10
13 10 7 0 -4 -7 -3 -13 1 -13 5 0 15 6 22 13 11 10 13 10 7 0 -4 -7 -3 -13 1
-13 5 0 15 6 22 13 11 10 13 10 7 0 -4 -7 -3 -13 1 -13 5 0 15 6 22 13 11 10
13 10 7 0 -4 -7 -3 -13 1 -13 5 0 15 6 22 13 11 10 13 10 7 0 -9 -16 10 -17
20 -2 4 8 9 8 17 0 15 -15 30 -14 21 2 -6 10 -4 10 7 0 16 -16 33 -17 23 -2
-5 8 -1 8 14 0 27 -14 35 -14 26 2 -4 6 2 4 13 -6 11 -9 23 -14 27 -10 4 5 7
4 5 -2 -1 -5 5 -26 14 -45 15 -35 16 -34 19 76 2 61 1 123 -2 137 l-5 26 -22
-25z"/>
<path d="M2653 1243 c1 -25 5 -27 27 -13 13 8 13 10 -2 10 -9 0 -18 6 -21 13
-3 6 -4 2 -4 -10z"/>
<path d="M4282 1241 c-11 -7 -10 -10 3 -15 22 -8 22 -8 22 9 0 17 -6 18 -25 6z"/>
<path d="M4168 1233 c7 -3 16 -2 19 1 4 3 -2 6 -13 5 -11 0 -14 -3 -6 -6z"/>
<path d="M4208 1233 c6 -2 18 -2 25 0 6 3 1 5 -13 5 -14 0 -19 -2 -12 -5z"/>
<path d="M3547 1212 c-3 -4 -34 -8 -68 -10 -35 -2 -66 -6 -69 -8 -3 -3 -5 -24
-5 -47 0 -38 -3 -42 -30 -48 l-30 -7 28 -1 c15 0 28 -7 28 -13 1 -7 2 -34 3
-60 l2 -48 -35 -1 -36 0 35 -12 c34 -12 35 -14 35 -62 0 -49 0 -50 -35 -56
-19 -4 -26 -7 -15 -8 38 -3 48 -18 50 -70 1 -50 1 -51 -29 -52 -28 -2 -28 -2
-6 -6 33 -6 36 -14 35 -70 0 -47 -1 -48 -35 -54 l-35 -6 33 -2 c34 -1 34 -2
35 -73 l1 -38 111 0 c73 0 115 4 123 12 15 15 16 82 2 108 -6 11 -6 21 -1 24
5 3 9 55 9 116 0 61 -4 113 -9 116 -5 3 -5 13 1 24 5 10 10 37 10 59 0 22 -5
43 -10 46 -7 4 -6 13 1 27 6 11 8 39 5 62 -7 50 -7 49 0 107 l6 47 -31 -3
c-17 -1 -34 1 -37 6 -6 11 -31 12 -37 1z"/>
<path d="M3712 418 c7 -15 15 -23 17 -17 2 6 -4 18 -13 27 -15 15 -15 15 -4
-10z"/>
<path d="M3712 332 c-11 -25 -11 -25 4 -10 9 9 15 21 13 27 -2 6 -10 -2 -17
-17z"/>
<path d="M3312 293 l38 -4 -20 -39 c-36 -71 -21 -153 39 -203 69 -58 159 -56
225 6 83 79 63 230 -32 242 l-34 4 41 -40 c23 -22 42 -48 42 -57 1 -9 3 -29 5
-45 2 -19 -1 -25 -9 -20 -7 4 -5 -2 3 -12 9 -11 10 -16 3 -11 -8 4 -13 1 -13
-8 0 -9 -20 -25 -45 -36 -30 -14 -43 -25 -38 -33 4 -7 0 -7 -10 2 -13 10 -17
10 -17 1 0 -9 -3 -10 -13 -1 -8 6 -17 8 -20 4 -4 -3 -7 -1 -7 6 0 7 -4 9 -10
6 -5 -3 -10 0 -10 7 0 11 -2 10 -9 0 -7 -11 -9 -11 -14 2 -4 9 -14 16 -24 16
-15 0 -16 2 -3 10 13 8 12 10 -2 10 -10 0 -18 7 -18 15 0 8 -4 15 -10 15 -5 0
-6 7 -3 17 5 12 3 14 -8 8 -11 -7 -11 -5 1 10 9 11 10 16 3 11 -34 -20 15 68
56 101 l26 21 -75 -1 c-41 0 -58 -2 -38 -4z"/>
</g>
</svg>
